{
  "estimatedDaysBookedPerMonth":12.94,
  "estimatedEarningsPerBookedDay":{
    "amount":38.48,
    "currencyCode":"USD"
  },
  "estimatedVehicleValue":{
    "amount":28100.00,
    "currencyCode":"USD"
  },
  "recommendedDailyPrice":{
    "amount":47.30,
    "currencyCode":"USD"
  }
}