{
  "estimatedDaysBookedPerMonth":29,
  "estimatedEarningsPerBookedDay":{
    "amount":32.77,
    "currencyCode":"USD"
  },
  "estimatedVehicleValue":{
    "amount":18900.12,
    "currencyCode":"USD"
  },
  "recommendedDailyPrice":{
    "amount":42.50,
    "currencyCode":"USD"
  }
}