{
  "estimatedDaysBookedPerMonth":17.86,
  "estimatedEarningsPerBookedDay":{
    "amount":84.50,
    "currencyCode":"USD"
  },
  "estimatedVehicleValue":{
    "amount":37625.32,
    "currencyCode":"USD"
  },
  "recommendedDailyPrice":{
    "amount":94.88,
    "currencyCode":"USD"
  }
}