{
  "estimatedDaysBookedPerMonth":10.33,
  "estimatedEarningsPerBookedDay":{
    "amount":28.48,
    "currencyCode":"USD"
  },
  "estimatedVehicleValue":{
    "amount":21100.00,
    "currencyCode":"USD"
  },
  "recommendedDailyPrice":{
    "amount":37.30,
    "currencyCode":"USD"
  }
}