{
  "estimatedDaysBookedPerMonth":27.11,
  "estimatedEarningsPerBookedDay":{
    "amount":45.18,
    "currencyCode":"USD"
  },
  "estimatedVehicleValue":{
    "amount":27700.00,
    "currencyCode":"USD"
  },
  "recommendedDailyPrice":{
    "amount":52.50,
    "currencyCode":"USD"
  }
}